%YAML 1.1
%TAG !u! tag:unity3d.com,2011:
--- !u!1001 &2764963004104232639
PrefabInstance:
  m_ObjectHideFlags: 0
  serializedVersion: 2
  m_Modification:
    m_TransformParent: {fileID: 0}
    m_Modifications:
    - target: {fileID: -4216859302048453862, guid: 536563104fe130040b175776b6c614a4,
        type: 3}
      propertyPath: m_LocalPosition.x
      value: -76.1
      objectReference: {fileID: 0}
    - target: {fileID: -4216859302048453862, guid: 536563104fe130040b175776b6c614a4,
        type: 3}
      propertyPath: m_LocalPosition.y
      value: -0.028603
      objectReference: {fileID: 0}
    - target: {fileID: -4216859302048453862, guid: 536563104fe130040b175776b6c614a4,
        type: 3}
      propertyPath: m_LocalPosition.z
      value: 0.01936
      objectReference: {fileID: 0}
    - target: {fileID: -4216859302048453862, guid: 536563104fe130040b175776b6c614a4,
        type: 3}
      propertyPath: m_LocalRotation.x
      value: 0
      objectReference: {fileID: 0}
    - target: {fileID: -4216859302048453862, guid: 536563104fe130040b175776b6c614a4,
        type: 3}
      propertyPath: m_LocalRotation.y
      value: -0
      objectReference: {fileID: 0}
    - target: {fileID: -4216859302048453862, guid: 536563104fe130040b175776b6c614a4,
        type: 3}
      propertyPath: m_LocalRotation.z
      value: -0
      objectReference: {fileID: 0}
    - target: {fileID: -4216859302048453862, guid: 536563104fe130040b175776b6c614a4,
        type: 3}
      propertyPath: m_LocalRotation.w
      value: 1
      objectReference: {fileID: 0}
    - target: {fileID: -4216859302048453862, guid: 536563104fe130040b175776b6c614a4,
        type: 3}
      propertyPath: m_RootOrder
      value: 0
      objectReference: {fileID: 0}
    - target: {fileID: -4216859302048453862, guid: 536563104fe130040b175776b6c614a4,
        type: 3}
      propertyPath: m_LocalEulerAnglesHint.x
      value: 0
      objectReference: {fileID: 0}
    - target: {fileID: -4216859302048453862, guid: 536563104fe130040b175776b6c614a4,
        type: 3}
      propertyPath: m_LocalEulerAnglesHint.y
      value: 0
      objectReference: {fileID: 0}
    - target: {fileID: -4216859302048453862, guid: 536563104fe130040b175776b6c614a4,
        type: 3}
      propertyPath: m_LocalEulerAnglesHint.z
      value: 0
      objectReference: {fileID: 0}
    - target: {fileID: -4216859302048453862, guid: 536563104fe130040b175776b6c614a4,
        type: 3}
      propertyPath: m_LocalScale.x
      value: 1
      objectReference: {fileID: 0}
    - target: {fileID: -4216859302048453862, guid: 536563104fe130040b175776b6c614a4,
        type: 3}
      propertyPath: m_LocalScale.y
      value: 1
      objectReference: {fileID: 0}
    - target: {fileID: -4216859302048453862, guid: 536563104fe130040b175776b6c614a4,
        type: 3}
      propertyPath: m_LocalScale.z
      value: 1
      objectReference: {fileID: 0}
    - target: {fileID: -927199367670048503, guid: 536563104fe130040b175776b6c614a4,
        type: 3}
      propertyPath: m_Name
      value: Scanner
      objectReference: {fileID: 0}
    m_RemovedComponents: []
  m_SourcePrefab: {fileID: 100100000, guid: 536563104fe130040b175776b6c614a4, type: 3}
