%YAML 1.1
%TAG !u! tag:unity3d.com,2011:
--- !u!1001 &969276654256677993
PrefabInstance:
  m_ObjectHideFlags: 0
  serializedVersion: 2
  m_Modification:
    m_TransformParent: {fileID: 0}
    m_Modifications:
    - target: {fileID: -4216859302048453862, guid: 1b03b8d80828a4640863472644098c8e,
        type: 3}
      propertyPath: m_LocalPosition.x
      value: 779
      objectReference: {fileID: 0}
    - target: {fileID: -4216859302048453862, guid: 1b03b8d80828a4640863472644098c8e,
        type: 3}
      propertyPath: m_LocalPosition.y
      value: 30
      objectReference: {fileID: 0}
    - target: {fileID: -4216859302048453862, guid: 1b03b8d80828a4640863472644098c8e,
        type: 3}
      propertyPath: m_LocalPosition.z
      value: 0
      objectReference: {fileID: 0}
    - target: {fileID: -4216859302048453862, guid: 1b03b8d80828a4640863472644098c8e,
        type: 3}
      propertyPath: m_LocalRotation.x
      value: 0
      objectReference: {fileID: 0}
    - target: {fileID: -4216859302048453862, guid: 1b03b8d80828a4640863472644098c8e,
        type: 3}
      propertyPath: m_LocalRotation.y
      value: -0
      objectReference: {fileID: 0}
    - target: {fileID: -4216859302048453862, guid: 1b03b8d80828a4640863472644098c8e,
        type: 3}
      propertyPath: m_LocalRotation.z
      value: -0
      objectReference: {fileID: 0}
    - target: {fileID: -4216859302048453862, guid: 1b03b8d80828a4640863472644098c8e,
        type: 3}
      propertyPath: m_LocalRotation.w
      value: 1
      objectReference: {fileID: 0}
    - target: {fileID: -4216859302048453862, guid: 1b03b8d80828a4640863472644098c8e,
        type: 3}
      propertyPath: m_RootOrder
      value: 0
      objectReference: {fileID: 0}
    - target: {fileID: -4216859302048453862, guid: 1b03b8d80828a4640863472644098c8e,
        type: 3}
      propertyPath: m_LocalEulerAnglesHint.x
      value: 0
      objectReference: {fileID: 0}
    - target: {fileID: -4216859302048453862, guid: 1b03b8d80828a4640863472644098c8e,
        type: 3}
      propertyPath: m_LocalEulerAnglesHint.y
      value: 0
      objectReference: {fileID: 0}
    - target: {fileID: -4216859302048453862, guid: 1b03b8d80828a4640863472644098c8e,
        type: 3}
      propertyPath: m_LocalEulerAnglesHint.z
      value: 0
      objectReference: {fileID: 0}
    - target: {fileID: -1403678296177551039, guid: 1b03b8d80828a4640863472644098c8e,
        type: 3}
      propertyPath: m_Materials.Array.data[0]
      value: 
      objectReference: {fileID: 2100000, guid: f68dd6c360f1c84418cceb8ae4def53b, type: 2}
    - target: {fileID: -927199367670048503, guid: 1b03b8d80828a4640863472644098c8e,
        type: 3}
      propertyPath: m_Name
      value: Asteroid_small
      objectReference: {fileID: 0}
    - target: {fileID: 2008342614936494905, guid: 1b03b8d80828a4640863472644098c8e,
        type: 3}
      propertyPath: m_Name
      value: Asteroid_small
      objectReference: {fileID: 0}
    m_RemovedComponents: []
  m_SourcePrefab: {fileID: 100100000, guid: 1b03b8d80828a4640863472644098c8e, type: 3}
